<?xml version="1.0" encoding="UTF-8" standalone="no"?>
<!-- Created with Inkscape (http://www.inkscape.org/) -->

<svg
   xmlns:dc="http://purl.org/dc/elements/1.1/"
   xmlns:cc="http://creativecommons.org/ns#"
   xmlns:rdf="http://www.w3.org/1999/02/22-rdf-syntax-ns#"
   xmlns:svg="http://www.w3.org/2000/svg"
   xmlns="http://www.w3.org/2000/svg"
   xmlns:sodipodi="http://sodipodi.sourceforge.net/DTD/sodipodi-0.dtd"
   xmlns:inkscape="http://www.inkscape.org/namespaces/inkscape"
   width="1920"
   height="1920"
   viewBox="0 0 507.99999 508.00001"
   version="1.1"
   id="svg8"
   inkscape:version="0.92.4 (5da689c313, 2019-01-14)"
   sodipodi:docname="SlimFTPd64.svg"
   inkscape:export-filename="./m2.png"
   inkscape:export-xdpi="96"
   inkscape:export-ydpi="96">
  <defs
     id="defs2" />
  <sodipodi:namedview
     id="base"
     pagecolor="#ffffff"
     bordercolor="#666666"
     borderopacity="1.0"
     inkscape:pageopacity="0.0"
     inkscape:pageshadow="2"
     inkscape:zoom="0.1767767"
     inkscape:cx="671.32039"
     inkscape:cy="1378.7585"
     inkscape:document-units="mm"
     inkscape:current-layer="layer5"
     showgrid="false"
     units="px"
     inkscape:window-width="1920"
     inkscape:window-height="1017"
     inkscape:window-x="1912"
     inkscape:window-y="-8"
     inkscape:window-maximized="1" />
  <metadata
     id="metadata5">
    <rdf:RDF>
      <cc:Work
         rdf:about="">
        <dc:format>image/svg+xml</dc:format>
        <dc:type
           rdf:resource="http://purl.org/dc/dcmitype/StillImage" />
        <dc:title />
      </cc:Work>
    </rdf:RDF>
  </metadata>
  <g
     inkscape:groupmode="layer"
     id="layer3"
     inkscape:label="Layer 3" />
  <g
     inkscape:groupmode="layer"
     id="layer4"
     inkscape:label="Layer 4" />
  <g
     inkscape:groupmode="layer"
     id="layer5"
     inkscape:label="Layer 5">
    <g
       style="font-style:normal;font-weight:normal;font-size:10.58333302px;line-height:1.25;font-family:sans-serif;letter-spacing:0px;word-spacing:0px;fill:#000000;fill-opacity:1;stroke:none;stroke-width:0.26458332"
       id="text1094" />
    <path
       id="path4998"
       style="fill:none;stroke:#ffffff;stroke-width:0.38428584;stroke-linecap:round;stroke-linejoin:round;stroke-miterlimit:4;stroke-dasharray:none;stroke-opacity:1"
       d=""
       inkscape:connector-curvature="0" />
    <path
       id="path5006"
       style="fill:none;stroke:#ffffff;stroke-width:0.38428584;stroke-linecap:round;stroke-linejoin:round;stroke-miterlimit:4;stroke-dasharray:none;stroke-opacity:1"
       d=""
       inkscape:connector-curvature="0" />
    <path
       id="path6475"
       style="fill:none;stroke:#000000;stroke-width:0.06856076"
       d=""
       inkscape:connector-curvature="0" />
    <path
       id="path6481"
       style="fill:none;stroke:#000000;stroke-width:0.06856076"
       d=""
       inkscape:connector-curvature="0" />
    <g
       id="g527">
      <path
         id="path819-7"
         d="M 153.17294,99.550015 354.21969,99.230704 416.65024,290.33885 254.18768,408.7695 91.349758,290.85551 Z"
         style="opacity:1;fill:none;fill-opacity:1;fill-rule:nonzero;stroke:#000000;stroke-width:16.06049156;stroke-linecap:round;stroke-linejoin:round;stroke-miterlimit:4;stroke-dasharray:none;stroke-dashoffset:0;stroke-opacity:1;paint-order:markers fill stroke" />
      <path
         id="path819-8-0"
         d="M 153.17294,99.550015 354.21969,99.230704 416.65024,290.33885 254.18768,408.7695 91.349758,290.85551 Z"
         style="opacity:1;fill:#babfb7;fill-opacity:1;fill-rule:nonzero;stroke:#ffffff;stroke-width:16.06049347;stroke-linecap:round;stroke-linejoin:round;stroke-miterlimit:4;stroke-dasharray:none;stroke-dashoffset:0;stroke-opacity:1;paint-order:markers fill stroke" />
      <path
         id="rect932"
         d="m 149.16718,102.96237 h 209.66564 v 39.87879 H 149.16718 Z"
         style="opacity:1;fill:#898e8c;fill-opacity:1;fill-rule:nonzero;stroke:#898e8c;stroke-width:6.44962835;stroke-linecap:square;stroke-linejoin:miter;stroke-miterlimit:4;stroke-dasharray:none;stroke-dashoffset:0;stroke-opacity:1;paint-order:markers fill stroke" />
      <path
         id="path48-8"
         transform="matrix(1.4166134,0.07950398,0.08071219,-1.3954076,-5.3068624,705.51735)"
         d="m 170.84522,224.51784 71.6931,143.8163 -160.395118,-9.8201 z"
         style="opacity:1;fill:#898e8c;fill-opacity:1;fill-rule:nonzero;stroke:none;stroke-width:10.26500034;stroke-linecap:round;stroke-linejoin:round;stroke-miterlimit:4;stroke-dasharray:none;stroke-dashoffset:0;stroke-opacity:1;paint-order:markers fill stroke" />
      <path
         id="path48-8-7-7"
         transform="matrix(1.6398244,0.07244495,0.09342975,-1.2715114,-46.794924,673.66075)"
         d="m 170.84522,224.51784 71.6931,143.8163 -160.395118,-9.8201 z"
         style="opacity:1;fill:none;fill-opacity:1;fill-rule:nonzero;stroke:#898e8c;stroke-width:5.30888796;stroke-linecap:square;stroke-linejoin:miter;stroke-miterlimit:4;stroke-dasharray:none;stroke-dashoffset:0;stroke-opacity:1;paint-order:markers fill stroke" />
      <path
         id="path48-8-7"
         transform="matrix(1.8045919,0.07544279,0.10281745,-1.324128,-76.969998,695.99059)"
         d="m 170.84522,224.51784 71.6931,143.8163 -160.395118,-9.8201 z"
         style="opacity:1;fill:none;fill-opacity:1;fill-rule:nonzero;stroke:#898e8c;stroke-width:0.93968904;stroke-linecap:square;stroke-linejoin:miter;stroke-miterlimit:4;stroke-dasharray:none;stroke-dashoffset:0;stroke-opacity:1;paint-order:markers fill stroke" />
      <path
         id="path202"
         transform="matrix(1.1357395,0,0,-1.0475122,345.06959,380.41245)"
         d="M -120.36701,159.71595 H -162.208 l 20.92049,-36.23536 z"
         style="opacity:1;fill:none;fill-opacity:1;fill-rule:nonzero;stroke:#babfb7;stroke-width:0.84100002;stroke-linecap:square;stroke-linejoin:miter;stroke-miterlimit:4;stroke-dasharray:none;stroke-opacity:1;paint-order:markers fill stroke" />
      <path
         id="path202-4"
         transform="scale(1,-1)"
         d="m 199.64591,-217.69999 h -30.08427 l 15.04214,-26.05374 z"
         style="opacity:1;fill:#a3a8a3;fill-opacity:1;fill-rule:nonzero;stroke:none;stroke-width:0.60469115;stroke-linecap:square;stroke-linejoin:miter;stroke-miterlimit:4;stroke-dasharray:none;stroke-opacity:1;paint-order:markers fill stroke" />
      <path
         id="path202-6"
         transform="matrix(1.1357395,0,0,-1.0475122,484.08739,379.3607)"
         d="M -120.36701,159.71595 H -162.208 l 20.92049,-36.23536 z"
         style="opacity:1;fill:none;fill-opacity:1;fill-rule:nonzero;stroke:#babfb7;stroke-width:0.84100002;stroke-linecap:square;stroke-linejoin:miter;stroke-miterlimit:4;stroke-dasharray:none;stroke-opacity:1;paint-order:markers fill stroke" />
      <path
         id="path202-4-0"
         transform="scale(1,-1)"
         d="m 338.66372,-216.64824 h -30.08427 l 15.04213,-26.05375 z"
         style="opacity:1;fill:#a3a8a3;fill-opacity:1;fill-rule:nonzero;stroke:none;stroke-width:0.60469115;stroke-linecap:square;stroke-linejoin:miter;stroke-miterlimit:4;stroke-dasharray:none;stroke-opacity:1;paint-order:markers fill stroke" />
      <path
         id="path202-6-2"
         transform="matrix(-0.73482678,0,0,0.67774346,223.55939,45.316177)"
         d="M -120.36701,159.71595 H -162.208 l 20.92049,-36.23536 z"
         style="opacity:1;fill:none;fill-opacity:1;fill-rule:nonzero;stroke:#a3a8a3;stroke-width:0.84100002;stroke-linecap:square;stroke-linejoin:miter;stroke-miterlimit:4;stroke-dasharray:none;stroke-opacity:1;paint-order:markers fill stroke" />
      <path
         id="path202-4-0-1"
         transform="scale(-1,1)"
         d="m -317.64895,150.59161 h -19.46461 l 9.7323,-16.85685 z"
         style="opacity:1;fill:#a3a8a3;fill-opacity:1;fill-rule:nonzero;stroke:none;stroke-width:0.39123693;stroke-linecap:square;stroke-linejoin:miter;stroke-miterlimit:4;stroke-dasharray:none;stroke-opacity:1;paint-order:markers fill stroke" />
      <g
         id="text1090-0-3-1-4-5-1-0"
         style="font-style:normal;font-variant:normal;font-weight:bold;font-stretch:normal;font-size:6.14510012px;line-height:1.25;font-family:'Source Sans Pro';-inkscape-font-specification:'Source Sans Pro Bold';letter-spacing:0px;word-spacing:0px;fill:#a3a8a3;fill-opacity:1;stroke:#a3a8a3;stroke-width:0.0209492;stroke-opacity:1"
         transform="scale(-1)"
         aria-label="6">
        <path
           id="path299"
           style="font-style:normal;font-variant:normal;font-weight:bold;font-stretch:normal;font-size:13.12816525px;font-family:Roundels;-inkscape-font-specification:'Roundels Bold';fill:#a3a8a3;fill-opacity:1;stroke:#a3a8a3;stroke-width:0.0209492;stroke-opacity:1"
           d="m -309.59955,-142.46104 q 0,1.89046 0.68267,3.54461 0.69579,1.65415 1.89045,2.88819 1.20779,1.22092 2.84881,1.92984 1.64103,0.70893 3.53148,0.70893 1.27343,0 2.44184,-0.31508 1.16841,-0.31508 2.17928,-0.89272 1.01086,-0.57764 1.82481,-1.39158 0.82707,-0.81395 1.40471,-1.82482 0.59077,-1.01087 0.90585,-2.17927 0.3282,-1.18154 0.3282,-2.4681 0,-1.28656 -0.3282,-2.45496 -0.31508,-1.18154 -0.90585,-2.19241 -0.57764,-1.01087 -1.40471,-1.82481 -0.81395,-0.81395 -1.82481,-1.39159 -1.01087,-0.57764 -2.17928,-0.89271 -1.16841,-0.31508 -2.44184,-0.31508 -1.89045,0 -3.53148,0.70892 -1.64102,0.70892 -2.84881,1.94297 -1.19466,1.22092 -1.89045,2.87507 -0.68267,1.65415 -0.68267,3.5446 z m 0.26257,0 q 0,-1.89045 0.69579,-3.50522 0.69579,-1.61476 1.90358,-2.7963 1.20779,-1.18153 2.83569,-1.83794 1.62789,-0.66954 3.50522,-0.66954 1.20779,0 2.31055,0.32821 1.1159,0.31507 2.06113,0.90584 0.95835,0.57764 1.73291,1.39159 0.77456,0.81394 1.32595,1.79856 0.55138,0.97148 0.8402,2.08737 0.30195,1.1159 0.30195,2.29743 0,1.18154 -0.30195,2.29743 -0.28882,1.1159 -0.8402,2.10051 -0.53826,0.97148 -1.31282,1.78543 -0.77456,0.81394 -1.73292,1.40471 -0.94522,0.57764 -2.04799,0.90585 -1.10277,0.31507 -2.31056,0.31507 -1.24717,0 -2.40245,-0.30195 -1.14215,-0.30194 -2.13989,-0.85333 -0.99774,-0.55138 -1.81169,-1.33907 -0.81395,-0.78769 -1.40471,-1.7723 -0.57764,-0.98461 -0.89272,-2.12676 -0.31507,-1.14216 -0.31507,-2.41559 z m 3.80716,0 q 0,1.024 0.39385,1.91671 0.39384,0.89272 1.07651,1.54913 0.68266,0.65641 1.58851,1.03712 0.91897,0.36759 1.95609,0.36759 1.024,0 1.90359,-0.38071 0.89271,-0.39385 1.54912,-1.05026 0.66954,-0.66953 1.05025,-1.54912 0.38072,-0.89272 0.38072,-1.89046 0,-0.98461 -0.36759,-1.8642 -0.35446,-0.89271 -0.99774,-1.56225 -0.63015,-0.66953 -1.50974,-1.06338 -0.86646,-0.39384 -1.87733,-0.39384 -1.06338,0 -1.99548,0.36758 -0.9321,0.35446 -1.64102,1.01087 -0.69579,0.64328 -1.10276,1.536 -0.40698,0.89271 -0.40698,1.96922 z" />
      </g>
      <path
         id="path202-6-2-1"
         transform="matrix(0.73482678,0,0,0.67774346,284.4406,45.316177)"
         d="M -120.36701,159.71595 H -162.208 l 20.92049,-36.23536 z"
         style="opacity:1;fill:none;fill-opacity:1;fill-rule:nonzero;stroke:#a3a8a3;stroke-width:0.84100002;stroke-linecap:square;stroke-linejoin:miter;stroke-miterlimit:4;stroke-dasharray:none;stroke-opacity:1;paint-order:markers fill stroke" />
      <path
         id="path202-4-0-1-3"
         d="m 190.35105,150.59161 h -19.46461 l 9.7323,-16.85685 z"
         style="opacity:1;fill:#a3a8a3;fill-opacity:1;fill-rule:nonzero;stroke:none;stroke-width:0.39123693;stroke-linecap:square;stroke-linejoin:miter;stroke-miterlimit:4;stroke-dasharray:none;stroke-opacity:1;paint-order:markers fill stroke" />
      <g
         id="text1090-0-3-1-4-5-1-0-3"
         style="font-style:normal;font-variant:normal;font-weight:bold;font-stretch:normal;font-size:6.14510012px;line-height:1.25;font-family:'Source Sans Pro';-inkscape-font-specification:'Source Sans Pro Bold';letter-spacing:0px;word-spacing:0px;fill:#a3a8a3;fill-opacity:1;stroke:#a3a8a3;stroke-width:0.0209492;stroke-opacity:1"
         transform="scale(1,-1)"
         aria-label="6">
        <path
           id="path304"
           style="font-style:normal;font-variant:normal;font-weight:bold;font-stretch:normal;font-size:13.12816525px;font-family:Roundels;-inkscape-font-specification:'Roundels Bold';fill:#a3a8a3;fill-opacity:1;stroke:#a3a8a3;stroke-width:0.0209492;stroke-opacity:1"
           d="m 198.40045,-142.46104 q 0,1.89046 0.68267,3.54461 0.69579,1.65415 1.89045,2.88819 1.20779,1.22092 2.84881,1.92984 1.64103,0.70893 3.53148,0.70893 1.27343,0 2.44184,-0.31508 1.16841,-0.31508 2.17928,-0.89272 1.01086,-0.57764 1.82481,-1.39158 0.82707,-0.81395 1.40471,-1.82482 0.59077,-1.01087 0.90585,-2.17927 0.3282,-1.18154 0.3282,-2.4681 0,-1.28656 -0.3282,-2.45496 -0.31508,-1.18154 -0.90585,-2.19241 -0.57764,-1.01087 -1.40471,-1.82481 -0.81395,-0.81395 -1.82481,-1.39159 -1.01087,-0.57764 -2.17928,-0.89271 -1.16841,-0.31508 -2.44184,-0.31508 -1.89045,0 -3.53148,0.70892 -1.64102,0.70892 -2.84881,1.94297 -1.19466,1.22092 -1.89045,2.87507 -0.68267,1.65415 -0.68267,3.5446 z m 0.26257,0 q 0,-1.89045 0.69579,-3.50522 0.69579,-1.61476 1.90358,-2.7963 1.20779,-1.18153 2.83569,-1.83794 1.62789,-0.66954 3.50522,-0.66954 1.20779,0 2.31055,0.32821 1.1159,0.31507 2.06113,0.90584 0.95835,0.57764 1.73291,1.39159 0.77456,0.81394 1.32595,1.79856 0.55138,0.97148 0.8402,2.08737 0.30195,1.1159 0.30195,2.29743 0,1.18154 -0.30195,2.29743 -0.28882,1.1159 -0.8402,2.10051 -0.53826,0.97148 -1.31282,1.78543 -0.77456,0.81394 -1.73292,1.40471 -0.94522,0.57764 -2.04799,0.90585 -1.10277,0.31507 -2.31056,0.31507 -1.24717,0 -2.40245,-0.30195 -1.14215,-0.30194 -2.13989,-0.85333 -0.99774,-0.55138 -1.81169,-1.33907 -0.81395,-0.78769 -1.40471,-1.7723 -0.57764,-0.98461 -0.89272,-2.12676 -0.31507,-1.14216 -0.31507,-2.41559 z m 3.80716,0 q 0,1.024 0.39385,1.91671 0.39384,0.89272 1.07651,1.54913 0.68266,0.65641 1.58851,1.03712 0.91897,0.36759 1.95609,0.36759 1.024,0 1.90359,-0.38071 0.89271,-0.39385 1.54912,-1.05026 0.66954,-0.66953 1.05025,-1.54912 0.38072,-0.89272 0.38072,-1.89046 0,-0.98461 -0.36759,-1.8642 -0.35446,-0.89271 -0.99774,-1.56225 -0.63015,-0.66953 -1.50974,-1.06338 -0.86646,-0.39384 -1.87733,-0.39384 -1.06338,0 -1.99548,0.36758 -0.9321,0.35446 -1.64102,1.01087 -0.69579,0.64328 -1.10276,1.536 -0.40698,0.89271 -0.40698,1.96922 z" />
      </g>
      <path
         id="rect932-8"
         d="M 136.36163,145.88626 H 371.6384 v 36.54255 H 136.36163 Z"
         style="opacity:1;fill:#babfb7;fill-opacity:1;fill-rule:nonzero;stroke:#babfb7;stroke-width:6.54016972;stroke-linecap:square;stroke-linejoin:miter;stroke-miterlimit:4;stroke-dasharray:none;stroke-dashoffset:0;stroke-opacity:1;paint-order:markers fill stroke" />
      <path
         id="rect932-2"
         d="m 122.66489,188.28813 h 262.67019 v 38.91574 H 122.66489 Z"
         style="opacity:1;fill:#a3a8a3;fill-opacity:1;fill-rule:nonzero;stroke:#a3a8a3;stroke-width:7.13129044;stroke-linecap:square;stroke-linejoin:miter;stroke-miterlimit:4;stroke-dasharray:none;stroke-dashoffset:0;stroke-opacity:1;paint-order:markers fill stroke" />
      <path
         id="path819-8-0-8"
         d="M 153.17294,99.550015 354.21969,99.230704 416.65024,290.33885 254.18768,408.7695 91.349758,290.85551 Z"
         style="opacity:1;fill:none;fill-opacity:1;fill-rule:nonzero;stroke:#96938e;stroke-width:16.06049347;stroke-linecap:round;stroke-linejoin:round;stroke-miterlimit:4;stroke-dasharray:none;stroke-dashoffset:0;stroke-opacity:1;paint-order:markers fill stroke" />
      <path
         id="path819-8-0-8-4"
         d="M 153.17294,99.550015 354.21969,99.230704 416.65024,290.33885 254.18768,408.7695 91.349758,290.85551 Z"
         style="opacity:1;fill:none;fill-opacity:1;fill-rule:nonzero;stroke:#2b2b28;stroke-width:10.15464687;stroke-linecap:round;stroke-linejoin:round;stroke-miterlimit:4;stroke-dasharray:none;stroke-dashoffset:0;stroke-opacity:1;paint-order:markers fill stroke" />
      <path
         id="path298"
         transform="rotate(-90)"
         d="M -148.31511,254 A 39.769474,40.069912 0 0 1 -188.08458,294.06991 39.769474,40.069912 0 0 1 -227.85405,254 39.769474,40.069912 0 0 1 -188.08458,213.93009 39.769474,40.069912 0 0 1 -148.31511,254 Z"
         style="opacity:1;fill:none;fill-opacity:1;fill-rule:nonzero;stroke:#cc0c00;stroke-width:5.24636173;stroke-linecap:square;stroke-linejoin:miter;stroke-miterlimit:4;stroke-dasharray:none;stroke-opacity:1;paint-order:markers fill stroke" />
      <path
         id="rect822-6-5"
         transform="matrix(-7.5647312e-4,0.99999971,-0.99998788,-0.00492253,0,0)"
         d="m 215.98479,-261.09479 h 102.6733 v 13.85668 h -102.6733 z"
         style="opacity:1;fill:#cc0c00;fill-opacity:1;fill-rule:nonzero;stroke:#cc0c00;stroke-width:5.18063354;stroke-linecap:round;stroke-linejoin:round;stroke-miterlimit:4;stroke-dasharray:none;stroke-dashoffset:0;stroke-opacity:1;paint-order:markers fill stroke" />
      <path
         id="rect822-6-5-9-0"
         transform="matrix(-2.1853184e-4,0.99999998,-0.99985485,-0.0170376,0,0)"
         d="m 198.93504,-267.63434 h 102.65999 v 4.00297 H 198.93504 Z"
         style="opacity:1;fill:#d81e05;fill-opacity:1;fill-rule:nonzero;stroke:#d81e05;stroke-width:2.78467774;stroke-linecap:round;stroke-linejoin:round;stroke-miterlimit:4;stroke-dasharray:none;stroke-dashoffset:0;stroke-opacity:1;paint-order:markers fill stroke" />
      <path
         id="rect822-6-5-9"
         transform="matrix(-2.1251265e-4,0.99999998,-0.99984651,-0.01752006,0,0)"
         d="m 199.11409,-265.48764 h 102.37317 v 3.88186 H 199.11409 Z"
         style="opacity:1;fill:#d81e05;fill-opacity:1;fill-rule:nonzero;stroke:#d81e05;stroke-width:2.73820686;stroke-linecap:square;stroke-linejoin:miter;stroke-miterlimit:4;stroke-dasharray:none;stroke-dashoffset:0;stroke-opacity:1;paint-order:markers fill stroke" />
      <path
         id="rect822-6-5-9-0-1"
         transform="matrix(2.1853184e-4,0.99999998,0.99985485,-0.0170376,0,0)"
         d="m 207.52315,240.43753 h 102.65999 v 4.00297 H 207.52315 Z"
         style="opacity:1;fill:#d81e05;fill-opacity:1;fill-rule:nonzero;stroke:#d81e05;stroke-width:2.78467774;stroke-linecap:round;stroke-linejoin:round;stroke-miterlimit:4;stroke-dasharray:none;stroke-dashoffset:0;stroke-opacity:1;paint-order:markers fill stroke" />
      <path
         id="rect822-6-5-9-8"
         transform="matrix(2.1251265e-4,0.99999998,0.99984651,-0.01752006,0,0)"
         d="m 207.9474,242.58846 h 102.37317 v 3.88186 H 207.9474 Z"
         style="opacity:1;fill:#d81e05;fill-opacity:1;fill-rule:nonzero;stroke:#d81e05;stroke-width:2.73820686;stroke-linecap:square;stroke-linejoin:miter;stroke-miterlimit:4;stroke-dasharray:none;stroke-dashoffset:0;stroke-opacity:1;paint-order:markers fill stroke" />
      <path
         id="path1390-6-4-7-7-3-7-5"
         d="M 289.34834,186.69283 A 35.348339,35.348339 0 0 1 254,222.04116 35.348339,35.348339 0 0 1 218.65166,186.69283 35.348339,35.348339 0 0 1 254,151.34449 a 35.348339,35.348339 0 0 1 35.34834,35.34834 z"
         style="opacity:1;fill:#2b2b28;fill-opacity:1;fill-rule:nonzero;stroke:#96938e;stroke-width:2.77347565;stroke-linecap:round;stroke-linejoin:round;stroke-miterlimit:4;stroke-dasharray:none;stroke-dashoffset:0;stroke-opacity:1;paint-order:markers fill stroke" />
      <g
         id="text1174"
         style="font-style:normal;font-variant:normal;font-weight:bold;font-stretch:normal;font-size:32.06646347px;line-height:1;font-family:Wingdings;-inkscape-font-specification:'Wingdings Bold';text-align:center;letter-spacing:0px;word-spacing:0px;text-anchor:middle;fill:#d1d1c6;fill-opacity:1;stroke:#3f3f38;stroke-width:0.13361026"
         transform="matrix(-0.70710678,-0.70710678,-0.70710678,0.70710678,0,0)"
         aria-label="Ë">
        <path
           id="path318"
           style="font-style:normal;font-variant:normal;font-weight:bold;font-stretch:normal;font-family:Wingdings;-inkscape-font-specification:'Wingdings Bold';text-align:center;text-anchor:middle;fill:#d1d1c6;fill-opacity:1;stroke:#3f3f38;stroke-width:0.13361026"
           d="m -401.09631,-3.9902534 h 2.89663 q 0.57933,7.7347818 7.09283,10.960217 0.61064,1.5500879 0.78287,3.5229274 -4.65026,-1.5814032 -7.49992,-5.4018217 -2.834,-3.8204185 -3.27241,-9.0813227 z m 14.48315,14.4831444 h -2.97492 q -0.57933,-7.6564949 -7.1398,-11.00718982 -0.59498,-1.70666238 -0.70458,-3.47595458 4.82249,1.7379773 7.62518,5.495766 2.80268,3.7421312 3.19412,8.9873784 z m 16.03323,-14.4831444 v 2.8966288 q -7.20243,0.42275125 -11.02285,7.1711134 -1.55009,0.6262981 -3.4603,0.7045854 1.42483,-4.5563188 5.41748,-7.53123482 4.00831,-2.99057348 9.06567,-3.24109278 z M -385.06308,10.492891 V 7.5492894 q 3.6795,-0.2505192 6.5135,-2.0824412 2.84966,-1.8475795 4.49369,-5.05735731 1.92587,-0.64195556 3.47596,-0.75155773 -1.3622,4.55631874 -5.35485,7.53123484 -3.97699,2.974916 -9.1283,3.303723 z m 14.48315,16.033231 h -2.97492 q 0,-2.865314 -1.67535,-5.855887 -1.72232,-3.068861 -5.35485,-5.10433 -0.67327,-1.784949 -0.75155,-3.522927 4.69723,1.581403 7.53123,5.417479 2.84966,3.820419 3.22544,9.065665 z m -14.48315,-14.483144 h 3.08452 q 0.5167,7.468605 6.96757,11.054162 0.1096,0.375779 0.15657,0.563668 0.48538,1.581403 0.59499,3.068861 -5.58971,-2.192043 -8.36108,-6.748362 -2.44257,-4.023965 -2.44257,-7.938329 z m -16.03323,14.483144 v -2.896629 q 3.25675,0 6.4039,-2.035468 3.16281,-2.035469 4.61895,-5.088673 1.95718,-0.626298 3.4603,-0.7359 -1.65969,4.712893 -5.51143,7.56255 -3.83607,2.865314 -8.97172,3.19412 z m 14.48315,-14.483144 v 2.896629 q -3.55425,0.172232 -6.41956,2.066784 -2.84966,1.894552 -4.58763,5.229589 -2.12942,0.688928 -3.47596,0.688928 1.67535,-4.775523 5.52708,-7.672152 3.85174,-2.896629 8.95607,-3.209778 z" />
      </g>
      <g
         id="text1174-4"
         style="font-style:normal;font-variant:normal;font-weight:bold;font-stretch:normal;font-size:32.06646347px;line-height:1;font-family:Wingdings;-inkscape-font-specification:'Wingdings Bold';text-align:center;letter-spacing:0px;word-spacing:0px;text-anchor:middle;fill:#d1d1c6;fill-opacity:1;stroke:#3f3f38;stroke-width:0.13361026"
         transform="matrix(-0.70710678,-0.70710678,-0.70710678,0.70710678,0,0)"
         aria-label="Ë">
        <path
           id="path321"
           style="font-style:normal;font-variant:normal;font-weight:bold;font-stretch:normal;font-family:Wingdings;-inkscape-font-specification:'Wingdings Bold';text-align:center;text-anchor:middle;fill:#d1d1c6;fill-opacity:1;stroke:#3f3f38;stroke-width:0.13361026"
           d="m -401.09631,26.729668 h 2.89663 q 0.57933,7.734781 7.09283,10.960217 0.61064,1.550088 0.78287,3.522927 -4.65026,-1.581403 -7.49992,-5.401822 -2.834,-3.820418 -3.27241,-9.081322 z m 14.48315,14.483144 h -2.97492 q -0.57933,-7.656495 -7.1398,-11.00719 -0.59498,-1.706662 -0.70458,-3.475954 4.82249,1.737977 7.62518,5.495766 2.80268,3.742131 3.19412,8.987378 z m 16.03323,-14.483144 v 2.896629 q -7.20243,0.422751 -11.02285,7.171113 -1.55009,0.626298 -3.4603,0.704585 1.42483,-4.556318 5.41748,-7.531235 4.00831,-2.990573 9.06567,-3.241092 z m -14.48315,14.483144 v -2.943601 q 3.6795,-0.25052 6.5135,-2.082442 2.84966,-1.847579 4.49369,-5.057357 1.92587,-0.641956 3.47596,-0.751558 -1.3622,4.556319 -5.35485,7.531235 -3.97699,2.974916 -9.1283,3.303723 z m 14.48315,16.033231 h -2.97492 q 0,-2.865313 -1.67535,-5.855887 -1.72232,-3.068861 -5.35485,-5.10433 -0.67327,-1.784949 -0.75155,-3.522927 4.69723,1.581403 7.53123,5.417479 2.84966,3.820419 3.22544,9.065665 z m -14.48315,-14.483144 h 3.08452 q 0.5167,7.468606 6.96757,11.054162 0.1096,0.375779 0.15657,0.563669 0.48538,1.581402 0.59499,3.06886 -5.58971,-2.192043 -8.36108,-6.748362 -2.44257,-4.023965 -2.44257,-7.938329 z m -16.03323,14.483144 v -2.896628 q 3.25675,0 6.4039,-2.035469 3.16281,-2.035469 4.61895,-5.088672 1.95718,-0.626299 3.4603,-0.735901 -1.65969,4.712894 -5.51143,7.56255 -3.83607,2.865314 -8.97172,3.19412 z m 14.48315,-14.483144 v 2.896629 q -3.55425,0.172232 -6.41956,2.066784 -2.84966,1.894552 -4.58763,5.229589 -2.12942,0.688928 -3.47596,0.688928 1.67535,-4.775523 5.52708,-7.672152 3.85174,-2.896628 8.95607,-3.209778 z" />
      </g>
      <g
         id="text1174-9"
         style="font-style:normal;font-variant:normal;font-weight:bold;font-stretch:normal;font-size:32.06646347px;line-height:1;font-family:Wingdings;-inkscape-font-specification:'Wingdings Bold';text-align:center;letter-spacing:0px;word-spacing:0px;text-anchor:middle;fill:#d1d1c6;fill-opacity:1;stroke:#3f3f38;stroke-width:0.13361026"
         transform="matrix(-0.70710678,-0.70710678,-0.70710678,0.70710678,0,0)"
         aria-label="Ë">
        <path
           id="path324"
           style="font-style:normal;font-variant:normal;font-weight:bold;font-stretch:normal;font-family:Wingdings;-inkscape-font-specification:'Wingdings Bold';text-align:center;text-anchor:middle;fill:#d1d1c6;fill-opacity:1;stroke:#3f3f38;stroke-width:0.13361026"
           d="m -431.6127,-3.9902534 h 2.89663 q 0.57933,7.7347818 7.09283,10.960217 0.61064,1.5500879 0.78287,3.5229274 -4.65026,-1.5814032 -7.49992,-5.4018217 -2.834,-3.8204185 -3.27241,-9.0813227 z m 14.48315,14.4831444 h -2.97492 q -0.57932,-7.6564949 -7.1398,-11.00718982 -0.59498,-1.70666238 -0.70458,-3.47595458 4.82249,1.7379773 7.62518,5.495766 2.80268,3.7421312 3.19412,8.9873784 z m 16.03323,-14.4831444 v 2.8966288 q -7.20243,0.42275125 -11.02285,7.1711134 -1.55009,0.6262981 -3.46029,0.7045854 1.42482,-4.5563188 5.41747,-7.53123482 4.00831,-2.99057348 9.06567,-3.24109278 z M -415.57946,10.492891 V 7.5492894 q 3.6795,-0.2505192 6.5135,-2.0824412 2.84965,-1.8475795 4.49368,-5.05735731 1.92587,-0.64195556 3.47596,-0.75155773 -1.3622,4.55631874 -5.35485,7.53123484 -3.97699,2.974916 -9.12829,3.303723 z m 14.48314,16.033231 h -2.97492 q 0,-2.865314 -1.67534,-5.855887 -1.72232,-3.068861 -5.35485,-5.10433 -0.67327,-1.784949 -0.75156,-3.522927 4.69724,1.581403 7.53123,5.417479 2.84966,3.820419 3.22544,9.065665 z m -14.48314,-14.483144 h 3.08451 q 0.5167,7.468605 6.96757,11.054162 0.1096,0.375779 0.15657,0.563668 0.48539,1.581403 0.59499,3.068861 -5.58971,-2.192043 -8.36108,-6.748362 -2.44256,-4.023965 -2.44256,-7.938329 z m -16.03324,14.483144 v -2.896629 q 3.25675,0 6.4039,-2.035468 3.16281,-2.035469 4.61895,-5.088673 1.95718,-0.626298 3.4603,-0.7359 -1.65969,4.712893 -5.51143,7.56255 -3.83607,2.865314 -8.97172,3.19412 z m 14.48315,-14.483144 v 2.896629 q -3.55424,0.172232 -6.41956,2.066784 -2.84965,1.894552 -4.58763,5.229589 -2.12942,0.688928 -3.47596,0.688928 1.67535,-4.775523 5.52708,-7.672152 3.85174,-2.896629 8.95607,-3.209778 z" />
      </g>
      <g
         id="text1174-9-2"
         style="font-style:normal;font-variant:normal;font-weight:bold;font-stretch:normal;font-size:32.06646347px;line-height:1;font-family:Wingdings;-inkscape-font-specification:'Wingdings Bold';text-align:center;letter-spacing:0px;word-spacing:0px;text-anchor:middle;fill:#d1d1c6;fill-opacity:1;stroke:#3f3f38;stroke-width:0.13361026"
         transform="matrix(-0.70710678,-0.70710678,-0.70710678,0.70710678,0,0)"
         aria-label="Ë">
        <path
           id="path327"
           style="font-style:normal;font-variant:normal;font-weight:bold;font-stretch:normal;font-family:Wingdings;-inkscape-font-specification:'Wingdings Bold';text-align:center;text-anchor:middle;fill:#d1d1c6;fill-opacity:1;stroke:#3f3f38;stroke-width:0.13361026"
           d="m -431.6127,26.729668 h 2.89663 q 0.57933,7.734781 7.09283,10.960217 0.61064,1.550088 0.78287,3.522927 -4.65026,-1.581403 -7.49992,-5.401822 -2.834,-3.820418 -3.27241,-9.081322 z m 14.48315,14.483144 h -2.97492 q -0.57932,-7.656495 -7.1398,-11.00719 -0.59498,-1.706662 -0.70458,-3.475954 4.82249,1.737977 7.62518,5.495766 2.80268,3.742131 3.19412,8.987378 z m 16.03323,-14.483144 v 2.896629 q -7.20243,0.422751 -11.02285,7.171113 -1.55009,0.626298 -3.46029,0.704585 1.42482,-4.556318 5.41747,-7.531235 4.00831,-2.990573 9.06567,-3.241092 z m -14.48314,14.483144 v -2.943601 q 3.6795,-0.25052 6.5135,-2.082442 2.84965,-1.847579 4.49368,-5.057357 1.92587,-0.641956 3.47596,-0.751558 -1.3622,4.556319 -5.35485,7.531235 -3.97699,2.974916 -9.12829,3.303723 z m 14.48314,16.033231 h -2.97492 q 0,-2.865313 -1.67534,-5.855887 -1.72232,-3.068861 -5.35485,-5.10433 -0.67327,-1.784949 -0.75156,-3.522927 4.69724,1.581403 7.53123,5.417479 2.84966,3.820419 3.22544,9.065665 z m -14.48314,-14.483144 h 3.08451 q 0.5167,7.468606 6.96757,11.054162 0.1096,0.375779 0.15657,0.563669 0.48539,1.581402 0.59499,3.06886 -5.58971,-2.192043 -8.36108,-6.748362 -2.44256,-4.023965 -2.44256,-7.938329 z m -16.03324,14.483144 v -2.896628 q 3.25675,0 6.4039,-2.035469 3.16281,-2.035469 4.61895,-5.088672 1.95718,-0.626299 3.4603,-0.735901 -1.65969,4.712894 -5.51143,7.56255 -3.83607,2.865314 -8.97172,3.19412 z m 14.48315,-14.483144 v 2.896629 q -3.55424,0.172232 -6.41956,2.066784 -2.84965,1.894552 -4.58763,5.229589 -2.12942,0.688928 -3.47596,0.688928 1.67535,-4.775523 5.52708,-7.672152 3.85174,-2.896628 8.95607,-3.209778 z" />
      </g>
      <g
         id="text1174-9-0"
         style="font-style:normal;font-variant:normal;font-weight:bold;font-stretch:normal;font-size:32.06646347px;line-height:1;font-family:Wingdings;-inkscape-font-specification:'Wingdings Bold';text-align:center;letter-spacing:0px;word-spacing:0px;text-anchor:middle;fill:#d1d1c6;fill-opacity:1;stroke:#3f3f38;stroke-width:0.13361026"
         transform="matrix(-0.70710678,-0.70710678,-0.70710678,0.70710678,0,0)"
         aria-label="Ë">
        <path
           id="path330"
           style="font-style:normal;font-variant:normal;font-weight:bold;font-stretch:normal;font-family:Wingdings;-inkscape-font-specification:'Wingdings Bold';text-align:center;text-anchor:middle;fill:#d1d1c6;fill-opacity:1;stroke:#3f3f38;stroke-width:0.13361026"
           d="m -370.57995,26.729668 h 2.89663 q 0.57932,7.734781 7.09282,10.960217 0.61064,1.550088 0.78288,3.522927 -4.65027,-1.581403 -7.49992,-5.401822 -2.834,-3.820418 -3.27241,-9.081322 z m 14.48314,14.483144 h -2.97491 q -0.57933,-7.656495 -7.1398,-11.00719 -0.59498,-1.706662 -0.70459,-3.475954 4.8225,1.737977 7.62518,5.495766 2.80269,3.742131 3.19412,8.987378 z m 16.03323,-14.483144 v 2.896629 q -7.20242,0.422751 -11.02284,7.171113 -1.55009,0.626298 -3.4603,0.704585 1.42483,-4.556318 5.41748,-7.531235 4.00831,-2.990573 9.06566,-3.241092 z m -14.48314,14.483144 v -2.943601 q 3.6795,-0.25052 6.5135,-2.082442 2.84966,-1.847579 4.49369,-5.057357 1.92587,-0.641956 3.47595,-0.751558 -1.36219,4.556319 -5.35484,7.531235 -3.977,2.974916 -9.1283,3.303723 z m 14.48314,16.033231 h -2.97491 q 0,-2.865313 -1.67535,-5.855887 -1.72232,-3.068861 -5.35485,-5.10433 -0.67327,-1.784949 -0.75156,-3.522927 4.69724,1.581403 7.53124,5.417479 2.84966,3.820419 3.22543,9.065665 z m -14.48314,-14.483144 h 3.08452 q 0.5167,7.468606 6.96757,11.054162 0.1096,0.375779 0.15657,0.563669 0.48538,1.581402 0.59498,3.06886 -5.58971,-2.192043 -8.36108,-6.748362 -2.44256,-4.023965 -2.44256,-7.938329 z m -16.03323,14.483144 v -2.896628 q 3.25675,0 6.4039,-2.035469 3.1628,-2.035469 4.61895,-5.088672 1.95718,-0.626299 3.46029,-0.735901 -1.65969,4.712894 -5.51142,7.56255 -3.83608,2.865314 -8.97172,3.19412 z m 14.48314,-14.483144 v 2.896629 q -3.55424,0.172232 -6.41955,2.066784 -2.84966,1.894552 -4.58764,5.229589 -2.12941,0.688928 -3.47595,0.688928 1.67535,-4.775523 5.52708,-7.672152 3.85173,-2.896628 8.95606,-3.209778 z" />
      </g>
      <g
         id="text1174-9-5"
         style="font-style:normal;font-variant:normal;font-weight:bold;font-stretch:normal;font-size:32.06646347px;line-height:1;font-family:Wingdings;-inkscape-font-specification:'Wingdings Bold';text-align:center;letter-spacing:0px;word-spacing:0px;text-anchor:middle;fill:#d1d1c6;fill-opacity:1;stroke:#3f3f38;stroke-width:0.13361026"
         transform="matrix(-0.70710678,-0.70710678,-0.70710678,0.70710678,0,0)"
         aria-label="Ë">
        <path
           id="path333"
           style="font-style:normal;font-variant:normal;font-weight:bold;font-stretch:normal;font-family:Wingdings;-inkscape-font-specification:'Wingdings Bold';text-align:center;text-anchor:middle;fill:#d1d1c6;fill-opacity:1;stroke:#3f3f38;stroke-width:0.13361026"
           d="m -370.57995,-3.9902534 h 2.89663 q 0.57932,7.7347818 7.09282,10.960217 0.61064,1.5500879 0.78288,3.5229274 -4.65027,-1.5814032 -7.49992,-5.4018217 -2.834,-3.8204185 -3.27241,-9.0813227 z m 14.48314,14.4831444 h -2.97491 q -0.57933,-7.6564949 -7.1398,-11.00718982 -0.59498,-1.70666238 -0.70459,-3.47595458 4.8225,1.7379773 7.62518,5.495766 2.80269,3.7421312 3.19412,8.9873784 z m 16.03323,-14.4831444 v 2.8966288 q -7.20242,0.42275125 -11.02284,7.1711134 -1.55009,0.6262981 -3.4603,0.7045854 1.42483,-4.5563188 5.41748,-7.53123482 4.00831,-2.99057348 9.06566,-3.24109278 z M -354.54672,10.492891 V 7.5492894 q 3.6795,-0.2505192 6.5135,-2.0824412 2.84966,-1.8475795 4.49369,-5.05735731 1.92587,-0.64195556 3.47595,-0.75155773 -1.36219,4.55631874 -5.35484,7.53123484 -3.977,2.974916 -9.1283,3.303723 z m 14.48314,16.033231 h -2.97491 q 0,-2.865314 -1.67535,-5.855887 -1.72232,-3.068861 -5.35485,-5.10433 -0.67327,-1.784949 -0.75156,-3.522927 4.69724,1.581403 7.53124,5.417479 2.84966,3.820419 3.22543,9.065665 z m -14.48314,-14.483144 h 3.08452 q 0.5167,7.468605 6.96757,11.054162 0.1096,0.375779 0.15657,0.563668 0.48538,1.581403 0.59498,3.068861 -5.58971,-2.192043 -8.36108,-6.748362 -2.44256,-4.023965 -2.44256,-7.938329 z m -16.03323,14.483144 v -2.896629 q 3.25675,0 6.4039,-2.035468 3.1628,-2.035469 4.61895,-5.088673 1.95718,-0.626298 3.46029,-0.7359 -1.65969,4.712893 -5.51142,7.56255 -3.83608,2.865314 -8.97172,3.19412 z m 14.48314,-14.483144 v 2.896629 q -3.55424,0.172232 -6.41955,2.066784 -2.84966,1.894552 -4.58764,5.229589 -2.12941,0.688928 -3.47595,0.688928 1.67535,-4.775523 5.52708,-7.672152 3.85173,-2.896629 8.95606,-3.209778 z" />
      </g>
      <g
         id="text1174-9-22"
         style="font-style:normal;font-variant:normal;font-weight:bold;font-stretch:normal;font-size:32.06646347px;line-height:1;font-family:Wingdings;-inkscape-font-specification:'Wingdings Bold';text-align:center;letter-spacing:0px;word-spacing:0px;text-anchor:middle;fill:#d1d1c6;fill-opacity:1;stroke:#3f3f38;stroke-width:0.13361026"
         transform="matrix(-0.70710678,-0.70710678,-0.70710678,0.70710678,0,0)"
         aria-label="Ë">
        <path
           id="path336"
           style="font-style:normal;font-variant:normal;font-weight:bold;font-stretch:normal;font-family:Wingdings;-inkscape-font-specification:'Wingdings Bold';text-align:center;text-anchor:middle;fill:#d1d1c6;fill-opacity:1;stroke:#3f3f38;stroke-width:0.13361026"
           d="m -401.09631,-34.710176 h 2.89663 q 0.57933,7.734781 7.09283,10.960217 0.61064,1.550087 0.78287,3.522927 -4.65026,-1.581403 -7.49992,-5.401822 -2.834,-3.820418 -3.27241,-9.081322 z m 14.48315,14.483144 h -2.97492 q -0.57933,-7.656495 -7.1398,-11.00719 -0.59498,-1.706662 -0.70458,-3.475954 4.82249,1.737977 7.62518,5.495766 2.80268,3.742131 3.19412,8.987378 z m 16.03323,-14.483144 v 2.896628 q -7.20243,0.422752 -11.02285,7.171114 -1.55009,0.626298 -3.4603,0.704585 1.42483,-4.556319 5.41748,-7.531235 4.00831,-2.990573 9.06567,-3.241092 z m -14.48315,14.483144 v -2.943602 q 3.6795,-0.250519 6.5135,-2.082441 2.84966,-1.847579 4.49369,-5.057357 1.92587,-0.641956 3.47596,-0.751558 -1.3622,4.556319 -5.35485,7.531235 -3.97699,2.974916 -9.1283,3.303723 z m 14.48315,16.0332313 h -2.97492 q 0,-2.8653139 -1.67535,-5.8558873 -1.72232,-3.068861 -5.35485,-5.10433 -0.67327,-1.784949 -0.75155,-3.522927 4.69723,1.581403 7.53123,5.417479 2.84966,3.8204185 3.22544,9.0656653 z m -14.48315,-14.4831443 h 3.08452 q 0.5167,7.468605 6.96757,11.0541621 0.1096,0.3757788 0.15657,0.5636683 0.48538,1.5814027 0.59499,3.0688607 -5.58971,-2.1920434 -8.36108,-6.7483621 -2.44257,-4.023965 -2.44257,-7.938329 z m -16.03323,14.4831443 v -2.8966288 q 3.25675,0 6.4039,-2.0354689 3.16281,-2.0354686 4.61895,-5.0886726 1.95718,-0.626298 3.4603,-0.7359 -1.65969,4.712893 -5.51143,7.5625499 -3.83607,2.8653138 -8.97172,3.1941204 z m 14.48315,-14.4831443 v 2.896629 q -3.55425,0.172232 -6.41956,2.066784 -2.84966,1.894552 -4.58763,5.2295892 -2.12942,0.6889279 -3.47596,0.6889279 1.67535,-4.7755231 5.52708,-7.6721521 3.85174,-2.896629 8.95607,-3.209778 z" />
      </g>
      <g
         id="text1174-5"
         style="font-style:normal;font-variant:normal;font-weight:bold;font-stretch:normal;font-size:32.06646347px;line-height:1;font-family:Wingdings;-inkscape-font-specification:'Wingdings Bold';text-align:center;letter-spacing:0px;word-spacing:0px;text-anchor:middle;fill:#d1d1c6;fill-opacity:1;stroke:#3f3f38;stroke-width:0.13361026"
         transform="rotate(-45)"
         aria-label="Ë">
        <path
           id="path339"
           style="font-style:normal;font-variant:normal;font-weight:bold;font-stretch:normal;font-family:Wingdings;-inkscape-font-specification:'Wingdings Bold';text-align:center;text-anchor:middle;fill:#d1d1c6;fill-opacity:1;stroke:#3f3f38;stroke-width:0.13361026"
           d="m -41.886075,355.21999 h 2.896629 q 0.579326,7.73478 7.092826,10.96022 0.610641,1.55008 0.782873,3.52292 -4.650264,-1.5814 -7.49992,-5.40182 -2.833999,-3.82042 -3.272408,-9.08132 z m 14.483144,14.48314 h -2.974916 q -0.579326,-7.65649 -7.139798,-11.00719 -0.594983,-1.70666 -0.704586,-3.47595 4.822496,1.73798 7.62518,5.49577 2.802684,3.74213 3.19412,8.98737 z m 16.033232,-14.48314 v 2.89663 q -7.202428,0.42275 -11.022847,7.17111 -1.550088,0.6263 -3.460297,0.70459 1.424828,-4.55632 5.417479,-7.53124 4.008308,-2.99057 9.065665,-3.24109 z m -14.483144,14.48314 v -2.9436 q 3.679502,-0.25052 6.513501,-2.08244 2.849656,-1.84758 4.493688,-5.05736 1.925867,-0.64195 3.475955,-0.75155 -1.362198,4.55632 -5.354849,7.53123 -3.976993,2.97492 -9.128295,3.30372 z m 14.483144,16.03324 h -2.974916 q 0,-2.86532 -1.675347,-5.85589 -1.72232,-3.06886 -5.354849,-5.10433 -0.673271,-1.78495 -0.751558,-3.52293 4.697236,1.5814 7.531235,5.41748 2.849656,3.82042 3.225435,9.06567 z m -14.483144,-14.48315 h 3.084518 q 0.516696,7.46861 6.967567,11.05416 0.109602,0.37578 0.156574,0.56367 0.485381,1.5814 0.594984,3.06886 -5.589711,-2.19204 -8.36108,-6.74836 -2.442563,-4.02397 -2.442563,-7.93833 z m -16.033232,14.48315 v -2.89663 q 3.256751,0 6.403899,-2.03547 3.162805,-2.03547 4.618948,-5.08867 1.957182,-0.6263 3.460297,-0.7359 -1.65969,4.71289 -5.511423,7.56255 -3.836076,2.86531 -8.971721,3.19412 z m 14.483144,-14.48315 v 2.89663 q -3.554242,0.17223 -6.419555,2.06678 -2.849657,1.89456 -4.587634,5.22959 -2.129414,0.68893 -3.475955,0.68893 1.675348,-4.77552 5.527081,-7.67215 3.851734,-2.89663 8.956063,-3.20978 z" />
      </g>
      <g
         id="text1174-4-56"
         style="font-style:normal;font-variant:normal;font-weight:bold;font-stretch:normal;font-size:32.06646347px;line-height:1;font-family:Wingdings;-inkscape-font-specification:'Wingdings Bold';text-align:center;letter-spacing:0px;word-spacing:0px;text-anchor:middle;fill:#d1d1c6;fill-opacity:1;stroke:#3f3f38;stroke-width:0.13361026"
         transform="rotate(-45)"
         aria-label="Ë">
        <path
           id="path342"
           style="font-style:normal;font-variant:normal;font-weight:bold;font-stretch:normal;font-family:Wingdings;-inkscape-font-specification:'Wingdings Bold';text-align:center;text-anchor:middle;fill:#d1d1c6;fill-opacity:1;stroke:#3f3f38;stroke-width:0.13361026"
           d="m -41.886075,385.9399 h 2.896629 q 0.579326,7.73478 7.092826,10.96022 0.610641,1.55008 0.782873,3.52292 -4.650264,-1.5814 -7.49992,-5.40182 -2.833999,-3.82042 -3.272408,-9.08132 z m 14.483144,14.48314 h -2.974916 q -0.579326,-7.65649 -7.139798,-11.00719 -0.594983,-1.70666 -0.704586,-3.47595 4.822496,1.73798 7.62518,5.49577 2.802684,3.74213 3.19412,8.98737 z m 16.033232,-14.48314 v 2.89663 q -7.202428,0.42275 -11.022847,7.17111 -1.550088,0.6263 -3.460297,0.70459 1.424828,-4.55632 5.417479,-7.53124 4.008308,-2.99057 9.065665,-3.24109 z m -14.483144,14.48314 v -2.9436 q 3.679502,-0.25052 6.513501,-2.08244 2.849656,-1.84758 4.493688,-5.05736 1.925867,-0.64195 3.475955,-0.75155 -1.362198,4.55631 -5.354849,7.53123 -3.976993,2.97492 -9.128295,3.30372 z m 14.483144,16.03324 h -2.974916 q 0,-2.86532 -1.675347,-5.85589 -1.72232,-3.06886 -5.354849,-5.10433 -0.673271,-1.78495 -0.751558,-3.52293 4.697236,1.5814 7.531235,5.41748 2.849656,3.82042 3.225435,9.06567 z m -14.483144,-14.48315 h 3.084518 q 0.516696,7.46861 6.967567,11.05416 0.109602,0.37578 0.156574,0.56367 0.485381,1.5814 0.594984,3.06886 -5.589711,-2.19204 -8.36108,-6.74836 -2.442563,-4.02397 -2.442563,-7.93833 z m -16.033232,14.48315 v -2.89663 q 3.256751,0 6.403899,-2.03547 3.162805,-2.03547 4.618948,-5.08867 1.957182,-0.6263 3.460297,-0.7359 -1.65969,4.71289 -5.511423,7.56254 -3.836076,2.86532 -8.971721,3.19413 z m 14.483144,-14.48315 v 2.89663 q -3.554242,0.17223 -6.419555,2.06678 -2.849657,1.89456 -4.587634,5.22959 -2.129414,0.68893 -3.475955,0.68893 1.675348,-4.77552 5.527081,-7.67215 3.851734,-2.89663 8.956063,-3.20978 z" />
      </g>
      <g
         id="text1174-9-8"
         style="font-style:normal;font-variant:normal;font-weight:bold;font-stretch:normal;font-size:32.06646347px;line-height:1;font-family:Wingdings;-inkscape-font-specification:'Wingdings Bold';text-align:center;letter-spacing:0px;word-spacing:0px;text-anchor:middle;fill:#d1d1c6;fill-opacity:1;stroke:#3f3f38;stroke-width:0.13361026"
         transform="rotate(-45)"
         aria-label="Ë">
        <path
           id="path345"
           style="font-style:normal;font-variant:normal;font-weight:bold;font-stretch:normal;font-family:Wingdings;-inkscape-font-specification:'Wingdings Bold';text-align:center;text-anchor:middle;fill:#d1d1c6;fill-opacity:1;stroke:#3f3f38;stroke-width:0.13361026"
           d="m -72.402449,355.21999 h 2.896629 q 0.579325,7.73478 7.092826,10.96022 0.61064,1.55008 0.782872,3.52292 -4.650263,-1.5814 -7.49992,-5.40182 -2.833999,-3.82042 -3.272407,-9.08132 z m 14.483144,14.48314 h -2.974916 q -0.579326,-7.65649 -7.139799,-11.00719 -0.594983,-1.70666 -0.704585,-3.47595 4.822495,1.73798 7.625179,5.49577 2.802684,3.74213 3.194121,8.98737 z m 16.033231,-14.48314 v 2.89663 q -7.202428,0.42275 -11.022846,7.17111 -1.550088,0.6263 -3.460297,0.70459 1.424828,-4.55632 5.417478,-7.53124 4.008308,-2.99057 9.065665,-3.24109 z m -14.483143,14.48314 v -2.9436 q 3.679501,-0.25052 6.5135,-2.08244 2.849656,-1.84758 4.493689,-5.05736 1.925867,-0.64195 3.475954,-0.75155 -1.362198,4.55632 -5.354848,7.53123 -3.976993,2.97492 -9.128295,3.30372 z m 14.483143,16.03324 h -2.974916 q 0,-2.86532 -1.675347,-5.85589 -1.72232,-3.06886 -5.354849,-5.10433 -0.67327,-1.78495 -0.751558,-3.52293 4.697236,1.5814 7.531235,5.41748 2.849657,3.82042 3.225435,9.06567 z m -14.483143,-14.48315 h 3.084518 q 0.516696,7.46861 6.967566,11.05416 0.109602,0.37578 0.156575,0.56367 0.485381,1.5814 0.594983,3.06886 -5.589711,-2.19204 -8.36108,-6.74836 -2.442562,-4.02397 -2.442562,-7.93833 z m -16.033232,14.48315 v -2.89663 q 3.25675,0 6.403898,-2.03547 3.162806,-2.03547 4.618949,-5.08867 1.957181,-0.6263 3.460297,-0.7359 -1.65969,4.71289 -5.511424,7.56255 -3.836076,2.86531 -8.97172,3.19412 z m 14.483144,-14.48315 v 2.89663 q -3.554242,0.17223 -6.419556,2.06678 -2.849656,1.89456 -4.587634,5.22959 -2.129413,0.68893 -3.475954,0.68893 1.675347,-4.77552 5.527081,-7.67215 3.851733,-2.89663 8.956063,-3.20978 z" />
      </g>
      <g
         id="text1174-9-2-7"
         style="font-style:normal;font-variant:normal;font-weight:bold;font-stretch:normal;font-size:32.06646347px;line-height:1;font-family:Wingdings;-inkscape-font-specification:'Wingdings Bold';text-align:center;letter-spacing:0px;word-spacing:0px;text-anchor:middle;fill:#d1d1c6;fill-opacity:1;stroke:#3f3f38;stroke-width:0.13361026"
         transform="rotate(-45)"
         aria-label="Ë">
        <path
           id="path348"
           style="font-style:normal;font-variant:normal;font-weight:bold;font-stretch:normal;font-family:Wingdings;-inkscape-font-specification:'Wingdings Bold';text-align:center;text-anchor:middle;fill:#d1d1c6;fill-opacity:1;stroke:#3f3f38;stroke-width:0.13361026"
           d="m -72.402449,385.9399 h 2.896629 q 0.579325,7.73478 7.092826,10.96022 0.61064,1.55008 0.782872,3.52292 -4.650263,-1.5814 -7.49992,-5.40182 -2.833999,-3.82042 -3.272407,-9.08132 z m 14.483144,14.48314 h -2.974916 q -0.579326,-7.65649 -7.139799,-11.00719 -0.594983,-1.70666 -0.704585,-3.47595 4.822495,1.73798 7.625179,5.49577 2.802684,3.74213 3.194121,8.98737 z m 16.033231,-14.48314 v 2.89663 q -7.202428,0.42275 -11.022846,7.17111 -1.550088,0.6263 -3.460297,0.70459 1.424828,-4.55632 5.417478,-7.53124 4.008308,-2.99057 9.065665,-3.24109 z m -14.483143,14.48314 v -2.9436 q 3.679501,-0.25052 6.5135,-2.08244 2.849656,-1.84758 4.493689,-5.05736 1.925867,-0.64195 3.475954,-0.75155 -1.362198,4.55631 -5.354848,7.53123 -3.976993,2.97492 -9.128295,3.30372 z m 14.483143,16.03324 h -2.974916 q 0,-2.86532 -1.675347,-5.85589 -1.72232,-3.06886 -5.354849,-5.10433 -0.67327,-1.78495 -0.751558,-3.52293 4.697236,1.5814 7.531235,5.41748 2.849657,3.82042 3.225435,9.06567 z m -14.483143,-14.48315 h 3.084518 q 0.516696,7.46861 6.967566,11.05416 0.109602,0.37578 0.156575,0.56367 0.485381,1.5814 0.594983,3.06886 -5.589711,-2.19204 -8.36108,-6.74836 -2.442562,-4.02397 -2.442562,-7.93833 z m -16.033232,14.48315 v -2.89663 q 3.25675,0 6.403898,-2.03547 3.162806,-2.03547 4.618949,-5.08867 1.957181,-0.6263 3.460297,-0.7359 -1.65969,4.71289 -5.511424,7.56254 -3.836076,2.86532 -8.97172,3.19413 z m 14.483144,-14.48315 v 2.89663 q -3.554242,0.17223 -6.419556,2.06678 -2.849656,1.89456 -4.587634,5.22959 -2.129413,0.68893 -3.475954,0.68893 1.675347,-4.77552 5.527081,-7.67215 3.851733,-2.89663 8.956063,-3.20978 z" />
      </g>
      <g
         id="text1174-9-0-6"
         style="font-style:normal;font-variant:normal;font-weight:bold;font-stretch:normal;font-size:32.06646347px;line-height:1;font-family:Wingdings;-inkscape-font-specification:'Wingdings Bold';text-align:center;letter-spacing:0px;word-spacing:0px;text-anchor:middle;fill:#d1d1c6;fill-opacity:1;stroke:#3f3f38;stroke-width:0.13361026"
         transform="rotate(-45)"
         aria-label="Ë">
        <path
           id="path351"
           style="font-style:normal;font-variant:normal;font-weight:bold;font-stretch:normal;font-family:Wingdings;-inkscape-font-specification:'Wingdings Bold';text-align:center;text-anchor:middle;fill:#d1d1c6;fill-opacity:1;stroke:#3f3f38;stroke-width:0.13361026"
           d="m -11.369699,385.9399 h 2.8966287 q 0.5793258,7.73478 7.0928262,10.96022 0.61064063,1.55008 0.78287261,3.52292 -4.65026351,-1.5814 -7.49991991,-5.40182 -2.8339986,-3.82042 -3.2724076,-9.08132 z M 3.1134448,400.42304 H 0.13852879 q -0.57932575,-7.65649 -7.13979849,-11.00719 -0.5949832,-1.70666 -0.7045854,-3.47595 4.8224955,1.73798 7.62517955,5.49577 2.80268405,3.74213 3.19412035,8.98737 z M 19.146677,385.9399 v 2.89663 q -7.202429,0.42275 -11.0228472,7.17111 -1.5500879,0.6263 -3.4602971,0.70459 1.4248282,-4.55632 5.4174783,-7.53124 4.008308,-2.99057 9.065666,-3.24109 z M 4.6635327,400.42304 v -2.9436 q 3.6795014,-0.25052 6.5135003,-2.08244 2.849656,-1.84758 4.493689,-5.05736 1.925867,-0.64195 3.475955,-0.75155 -1.362199,4.55631 -5.354849,7.53123 -3.9769933,2.97492 -9.1282953,3.30372 z m 14.4831443,16.03324 h -2.974916 q 0,-2.86532 -1.675348,-5.85589 -1.72232,-3.06886 -5.3548488,-5.10433 -0.6732705,-1.78495 -0.7515577,-3.52293 4.6972355,1.5814 7.5312345,5.41748 2.849657,3.82042 3.225436,9.06567 z M 4.6635327,401.97313 h 3.0845182 q 0.5166959,7.46861 6.9675661,11.05416 0.109603,0.37578 0.156575,0.56367 0.485381,1.5814 0.594983,3.06886 -5.5897105,-2.19204 -8.3610797,-6.74836 -2.4425626,-4.02397 -2.4425626,-7.93833 z m -16.0332317,14.48315 v -2.89663 q 3.2567501,0 6.4038982,-2.03547 3.1628054,-2.03547 4.61894856,-5.08867 1.95718164,-0.6263 3.46029704,-0.7359 -1.65969,4.71289 -5.5114234,7.56254 -3.8360759,2.86532 -8.9717204,3.19413 z M 3.1134448,401.97313 v 2.89663 q -3.55424176,0.17223 -6.4195556,2.06678 -2.8496565,1.89456 -4.5876337,5.22959 -2.1294135,0.68893 -3.4759545,0.68893 1.6753474,-4.77552 5.5270808,-7.67215 3.8517334,-2.89663 8.956063,-3.20978 z" />
      </g>
      <g
         id="text1174-9-5-8"
         style="font-style:normal;font-variant:normal;font-weight:bold;font-stretch:normal;font-size:32.06646347px;line-height:1;font-family:Wingdings;-inkscape-font-specification:'Wingdings Bold';text-align:center;letter-spacing:0px;word-spacing:0px;text-anchor:middle;fill:#d1d1c6;fill-opacity:1;stroke:#3f3f38;stroke-width:0.13361026"
         transform="rotate(-45)"
         aria-label="Ë">
        <path
           id="path354"
           style="font-style:normal;font-variant:normal;font-weight:bold;font-stretch:normal;font-family:Wingdings;-inkscape-font-specification:'Wingdings Bold';text-align:center;text-anchor:middle;fill:#d1d1c6;fill-opacity:1;stroke:#3f3f38;stroke-width:0.13361026"
           d="m -11.369699,355.21999 h 2.8966287 q 0.5793258,7.73478 7.0928262,10.96022 0.61064063,1.55008 0.78287261,3.52292 -4.65026351,-1.5814 -7.49991991,-5.40182 -2.8339986,-3.82042 -3.2724076,-9.08132 z M 3.1134448,369.70313 H 0.13852879 q -0.57932575,-7.65649 -7.13979849,-11.00719 -0.5949832,-1.70666 -0.7045854,-3.47595 4.8224955,1.73798 7.62517955,5.49577 2.80268405,3.74213 3.19412035,8.98737 z M 19.146677,355.21999 v 2.89663 q -7.202429,0.42275 -11.0228472,7.17111 -1.5500879,0.6263 -3.4602971,0.70459 1.4248282,-4.55632 5.4174783,-7.53124 4.008308,-2.99057 9.065666,-3.24109 z M 4.6635327,369.70313 v -2.9436 q 3.6795014,-0.25052 6.5135003,-2.08244 2.849656,-1.84758 4.493689,-5.05736 1.925867,-0.64195 3.475955,-0.75155 -1.362199,4.55632 -5.354849,7.53123 -3.9769933,2.97492 -9.1282953,3.30372 z m 14.4831443,16.03324 h -2.974916 q 0,-2.86532 -1.675348,-5.85589 -1.72232,-3.06886 -5.3548488,-5.10433 -0.6732705,-1.78495 -0.7515577,-3.52293 4.6972355,1.5814 7.5312345,5.41748 2.849657,3.82042 3.225436,9.06567 z M 4.6635327,371.25322 h 3.0845182 q 0.5166959,7.46861 6.9675661,11.05416 0.109603,0.37578 0.156575,0.56367 0.485381,1.5814 0.594983,3.06886 -5.5897105,-2.19204 -8.3610797,-6.74836 -2.4425626,-4.02397 -2.4425626,-7.93833 z m -16.0332317,14.48315 v -2.89663 q 3.2567501,0 6.4038982,-2.03547 3.1628054,-2.03547 4.61894856,-5.08867 1.95718164,-0.6263 3.46029704,-0.7359 -1.65969,4.71289 -5.5114234,7.56255 -3.8360759,2.86531 -8.9717204,3.19412 z M 3.1134448,371.25322 v 2.89663 q -3.55424176,0.17223 -6.4195556,2.06678 -2.8496565,1.89456 -4.5876337,5.22959 -2.1294135,0.68893 -3.4759545,0.68893 1.6753474,-4.77552 5.5270808,-7.67215 3.8517334,-2.89663 8.956063,-3.20978 z" />
      </g>
      <g
         id="text1174-9-22-3"
         style="font-style:normal;font-variant:normal;font-weight:bold;font-stretch:normal;font-size:32.06646347px;line-height:1;font-family:Wingdings;-inkscape-font-specification:'Wingdings Bold';text-align:center;letter-spacing:0px;word-spacing:0px;text-anchor:middle;fill:#d1d1c6;fill-opacity:1;stroke:#3f3f38;stroke-width:0.13361026"
         transform="rotate(-45)"
         aria-label="Ë">
        <path
           id="path357"
           style="font-style:normal;font-variant:normal;font-weight:bold;font-stretch:normal;font-family:Wingdings;-inkscape-font-specification:'Wingdings Bold';text-align:center;text-anchor:middle;fill:#d1d1c6;fill-opacity:1;stroke:#3f3f38;stroke-width:0.13361026"
           d="m -41.886075,324.50005 h 2.896629 q 0.579326,7.73478 7.092826,10.96022 0.610641,1.55008 0.782873,3.52292 -4.650264,-1.5814 -7.49992,-5.40182 -2.833999,-3.82042 -3.272408,-9.08132 z m 14.483144,14.48314 h -2.974916 q -0.579326,-7.65649 -7.139798,-11.00719 -0.594983,-1.70666 -0.704586,-3.47595 4.822496,1.73798 7.62518,5.49577 2.802684,3.74213 3.19412,8.98737 z m 16.033232,-14.48314 v 2.89663 q -7.202428,0.42275 -11.022847,7.17111 -1.550088,0.6263 -3.460297,0.70459 1.424828,-4.55632 5.417479,-7.53124 4.008308,-2.99057 9.065665,-3.24109 z m -14.483144,14.48314 v -2.9436 q 3.679502,-0.25052 6.513501,-2.08244 2.849656,-1.84758 4.493688,-5.05736 1.925867,-0.64195 3.475955,-0.75155 -1.362198,4.55631 -5.354849,7.53123 -3.976993,2.97492 -9.128295,3.30372 z m 14.483144,16.03324 h -2.974916 q 0,-2.86532 -1.675347,-5.85589 -1.72232,-3.06886 -5.354849,-5.10433 -0.673271,-1.78495 -0.751558,-3.52293 4.697236,1.5814 7.531235,5.41748 2.849656,3.82042 3.225435,9.06567 z m -14.483144,-14.48315 h 3.084518 q 0.516696,7.46861 6.967567,11.05416 0.109602,0.37578 0.156574,0.56367 0.485381,1.5814 0.594984,3.06886 -5.589711,-2.19204 -8.36108,-6.74836 -2.442563,-4.02397 -2.442563,-7.93833 z m -16.033232,14.48315 v -2.89663 q 3.256751,0 6.403899,-2.03547 3.162805,-2.03547 4.618948,-5.08867 1.957182,-0.6263 3.460297,-0.7359 -1.65969,4.71289 -5.511423,7.56254 -3.836076,2.86532 -8.971721,3.19413 z m 14.483144,-14.48315 v 2.89663 q -3.554242,0.17223 -6.419555,2.06678 -2.849657,1.89456 -4.587634,5.22959 -2.129414,0.68893 -3.475955,0.68893 1.675348,-4.77552 5.527081,-7.67215 3.851734,-2.89663 8.956063,-3.20978 z" />
      </g>
      <g
         id="text1174-0"
         style="font-style:normal;font-variant:normal;font-weight:bold;font-stretch:normal;font-size:32.06646347px;line-height:1;font-family:Wingdings;-inkscape-font-specification:'Wingdings Bold';text-align:center;letter-spacing:0px;word-spacing:0px;text-anchor:middle;fill:#d1d1c6;fill-opacity:1;stroke:#3f3f38;stroke-width:0.13361026"
         transform="rotate(135)"
         aria-label="Ë">
        <path
           id="path360"
           style="font-style:normal;font-variant:normal;font-weight:bold;font-stretch:normal;font-family:Wingdings;-inkscape-font-specification:'Wingdings Bold';text-align:center;text-anchor:middle;fill:#d1d1c6;fill-opacity:1;stroke:#3f3f38;stroke-width:0.13361026"
           d="m -99.063922,-419.63102 h 2.896629 q 0.579326,7.73478 7.092826,10.96021 0.610641,1.55009 0.782873,3.52293 -4.650263,-1.5814 -7.49992,-5.40182 -2.833999,-3.82042 -3.272408,-9.08132 z m 14.483144,14.48314 h -2.974916 q -0.579325,-7.65649 -7.139798,-11.00719 -0.594983,-1.70666 -0.704586,-3.47595 4.822496,1.73797 7.62518,5.49576 2.802684,3.74213 3.19412,8.98738 z m 16.033232,-14.48314 v 2.89663 q -7.202428,0.42275 -11.022847,7.17111 -1.550088,0.6263 -3.460297,0.70458 1.424828,-4.55631 5.417479,-7.53123 4.008308,-2.99057 9.065665,-3.24109 z m -14.483144,14.48314 v -2.9436 q 3.679502,-0.25052 6.513501,-2.08244 2.849656,-1.84758 4.493689,-5.05736 1.925866,-0.64195 3.475954,-0.75156 -1.362198,4.55632 -5.354849,7.53124 -3.976993,2.97491 -9.128295,3.30372 z m 14.483144,16.03323 h -2.974916 q 0,-2.86531 -1.675347,-5.85589 -1.72232,-3.06886 -5.354849,-5.10432 -0.673271,-1.78495 -0.751558,-3.52293 4.697236,1.5814 7.531235,5.41748 2.849656,3.82042 3.225435,9.06566 z m -14.483144,-14.48314 h 3.084518 q 0.516696,7.4686 6.967567,11.05416 0.109602,0.37578 0.156574,0.56367 0.485382,1.5814 0.594984,3.06886 -5.589711,-2.19204 -8.36108,-6.74836 -2.442563,-4.02397 -2.442563,-7.93833 z m -16.033232,14.48314 v -2.89663 q 3.256751,0 6.403899,-2.03547 3.162805,-2.03546 4.618948,-5.08867 1.957182,-0.6263 3.460297,-0.7359 -1.65969,4.7129 -5.511423,7.56255 -3.836076,2.86532 -8.971721,3.19412 z m 14.483144,-14.48314 v 2.89663 q -3.554241,0.17223 -6.419555,2.06678 -2.849657,1.89455 -4.587634,5.22959 -2.129414,0.68893 -3.475955,0.68893 1.675348,-4.77552 5.527081,-7.67215 3.851734,-2.89663 8.956063,-3.20978 z" />
      </g>
      <g
         id="text1174-4-5"
         style="font-style:normal;font-variant:normal;font-weight:bold;font-stretch:normal;font-size:32.06646347px;line-height:1;font-family:Wingdings;-inkscape-font-specification:'Wingdings Bold';text-align:center;letter-spacing:0px;word-spacing:0px;text-anchor:middle;fill:#d1d1c6;fill-opacity:1;stroke:#3f3f38;stroke-width:0.13361026"
         transform="rotate(135)"
         aria-label="Ë">
        <path
           id="path363"
           style="font-style:normal;font-variant:normal;font-weight:bold;font-stretch:normal;font-family:Wingdings;-inkscape-font-specification:'Wingdings Bold';text-align:center;text-anchor:middle;fill:#d1d1c6;fill-opacity:1;stroke:#3f3f38;stroke-width:0.13361026"
           d="m -99.063922,-388.91114 h 2.896629 q 0.579326,7.73478 7.092826,10.96021 0.610641,1.55009 0.782873,3.52293 -4.650263,-1.5814 -7.49992,-5.40182 -2.833999,-3.82042 -3.272408,-9.08132 z m 14.483144,14.48314 h -2.974916 q -0.579325,-7.65649 -7.139798,-11.00719 -0.594983,-1.70666 -0.704586,-3.47595 4.822496,1.73797 7.62518,5.49576 2.802684,3.74213 3.19412,8.98738 z m 16.033232,-14.48314 v 2.89662 q -7.202428,0.42276 -11.022847,7.17112 -1.550088,0.6263 -3.460297,0.70458 1.424828,-4.55632 5.417479,-7.53123 4.008308,-2.99057 9.065665,-3.24109 z M -83.03069,-374.428 v -2.9436 q 3.679502,-0.25052 6.513501,-2.08244 2.849656,-1.84758 4.493689,-5.05736 1.925866,-0.64196 3.475954,-0.75156 -1.362198,4.55632 -5.354849,7.53124 -3.976993,2.97491 -9.128295,3.30372 z m 14.483144,16.03323 h -2.974916 q 0,-2.86531 -1.675347,-5.85589 -1.72232,-3.06886 -5.354849,-5.10433 -0.673271,-1.78495 -0.751558,-3.52292 4.697236,1.5814 7.531235,5.41748 2.849656,3.82041 3.225435,9.06566 z m -14.483144,-14.48314 h 3.084518 q 0.516696,7.4686 6.967567,11.05416 0.109602,0.37578 0.156574,0.56367 0.485382,1.5814 0.594984,3.06886 -5.589711,-2.19205 -8.36108,-6.74836 -2.442563,-4.02397 -2.442563,-7.93833 z m -16.033232,14.48314 v -2.89663 q 3.256751,0 6.403899,-2.03547 3.162805,-2.03547 4.618948,-5.08867 1.957182,-0.6263 3.460297,-0.7359 -1.65969,4.71289 -5.511423,7.56255 -3.836076,2.86531 -8.971721,3.19412 z m 14.483144,-14.48314 v 2.89663 q -3.554241,0.17223 -6.419555,2.06678 -2.849657,1.89455 -4.587634,5.22959 -2.129414,0.68893 -3.475955,0.68893 1.675348,-4.77553 5.527081,-7.67215 3.851734,-2.89663 8.956063,-3.20978 z" />
      </g>
      <g
         id="text1174-0-3"
         style="font-style:normal;font-variant:normal;font-weight:bold;font-stretch:normal;font-size:32.06646347px;line-height:1;font-family:Wingdings;-inkscape-font-specification:'Wingdings Bold';text-align:center;letter-spacing:0px;word-spacing:0px;text-anchor:middle;fill:#d1d1c6;fill-opacity:1;stroke:#3f3f38;stroke-width:0.13361026"
         transform="matrix(0.70710678,0.70710678,0.70710678,-0.70710678,0,0)"
         aria-label="Ë">
        <path
           id="path366"
           style="font-style:normal;font-variant:normal;font-weight:bold;font-stretch:normal;font-family:Wingdings;-inkscape-font-specification:'Wingdings Bold';text-align:center;text-anchor:middle;fill:#d1d1c6;fill-opacity:1;stroke:#3f3f38;stroke-width:0.13361026"
           d="m 260.14634,-60.420792 h 2.89663 q 0.57932,7.734782 7.09282,10.960217 0.61064,1.550088 0.78287,3.522927 -4.65026,-1.581402 -7.49992,-5.401821 -2.83399,-3.820418 -3.2724,-9.081323 z m 14.48314,14.483144 h -2.97492 q -0.57932,-7.656494 -7.13979,-11.007189 -0.59499,-1.706662 -0.70459,-3.475955 4.8225,1.737978 7.62518,5.495766 2.80268,3.742132 3.19412,8.987378 z m 16.03323,-14.483144 v 2.896629 q -7.20243,0.422751 -11.02284,7.171114 -1.55009,0.626298 -3.4603,0.704585 1.42483,-4.556319 5.41748,-7.531235 4.00831,-2.990573 9.06566,-3.241093 z m -14.48314,14.483144 v -2.943601 q 3.6795,-0.250519 6.5135,-2.082441 2.84966,-1.847579 4.49369,-5.057357 1.92586,-0.641956 3.47595,-0.751558 -1.3622,4.556319 -5.35485,7.531235 -3.97699,2.974916 -9.12829,3.303722 z m 14.48314,16.033232 h -2.97491 q 0,-2.865314 -1.67535,-5.855887 -1.72232,-3.068861 -5.35485,-5.10433 -0.67327,-1.78495 -0.75156,-3.522927 4.69724,1.581403 7.53124,5.417479 2.84965,3.820418 3.22543,9.065665 z M 276.17957,-44.38756 h 3.08452 q 0.51669,7.468605 6.96756,11.054162 0.10961,0.375779 0.15658,0.563668 0.48538,1.581403 0.59498,3.068861 -5.58971,-2.192043 -8.36108,-6.748362 -2.44256,-4.023966 -2.44256,-7.938329 z m -16.03323,14.483144 v -2.896629 q 3.25675,0 6.4039,-2.035469 3.1628,-2.035468 4.61894,-5.088672 1.95719,-0.626298 3.4603,-0.7359 -1.65969,4.712893 -5.51142,7.56255 -3.83608,2.865314 -8.97172,3.19412 z m 14.48314,-14.483144 v 2.896629 q -3.55424,0.172232 -6.41955,2.066784 -2.84966,1.894552 -4.58764,5.229589 -2.12941,0.688928 -3.47595,0.688928 1.67534,-4.775523 5.52708,-7.672152 3.85173,-2.896629 8.95606,-3.209778 z" />
      </g>
      <g
         id="text1174-4-5-2"
         style="font-style:normal;font-variant:normal;font-weight:bold;font-stretch:normal;font-size:32.06646347px;line-height:1;font-family:Wingdings;-inkscape-font-specification:'Wingdings Bold';text-align:center;letter-spacing:0px;word-spacing:0px;text-anchor:middle;fill:#d1d1c6;fill-opacity:1;stroke:#3f3f38;stroke-width:0.13361026"
         transform="matrix(0.70710678,0.70710678,0.70710678,-0.70710678,0,0)"
         aria-label="Ë">
        <path
           id="path369"
           style="font-style:normal;font-variant:normal;font-weight:bold;font-stretch:normal;font-family:Wingdings;-inkscape-font-specification:'Wingdings Bold';text-align:center;text-anchor:middle;fill:#d1d1c6;fill-opacity:1;stroke:#3f3f38;stroke-width:0.13361026"
           d="m 260.14634,-29.70089 h 2.89663 q 0.57932,7.734782 7.09282,10.960217 0.61064,1.550088 0.78287,3.522927 -4.65026,-1.581403 -7.49992,-5.401821 -2.83399,-3.820419 -3.2724,-9.081323 z m 14.48314,14.483144 h -2.97492 q -0.57932,-7.656495 -7.13979,-11.007189 -0.59499,-1.706663 -0.70459,-3.475955 4.8225,1.737977 7.62518,5.495766 2.80268,3.742131 3.19412,8.987378 z m 16.03323,-14.483144 v 2.896629 q -7.20243,0.422751 -11.02284,7.171113 -1.55009,0.626298 -3.4603,0.704586 1.42483,-4.556319 5.41748,-7.531235 4.00831,-2.990574 9.06566,-3.241093 z m -14.48314,14.483144 v -2.943601 q 3.6795,-0.250519 6.5135,-2.082441 2.84966,-1.84758 4.49369,-5.057358 1.92586,-0.641955 3.47595,-0.751557 -1.3622,4.556318 -5.35485,7.531234 -3.97699,2.974916 -9.12829,3.303723 z m 14.48314,16.03323166 h -2.97491 q 0,-2.86531386 -1.67535,-5.85588736 -1.72232,-3.0688608 -5.35485,-5.1043293 -0.67327,-1.78495 -0.75156,-3.522927 4.69724,1.581402 7.53124,5.4174785 2.84965,3.8204184 3.22543,9.06566516 z M 276.17957,-13.667658 h 3.08452 q 0.51669,7.4686048 6.96756,11.0541615 0.10961,0.3757789 0.15658,0.5636683 0.48538,1.58140272 0.59498,3.0688607 -5.58971,-2.1920434 -8.36108,-6.7483621 -2.44256,-4.0239654 -2.44256,-7.9383284 z M 260.14634,0.81548566 V -2.0811431 q 3.25675,0 6.4039,-2.0354689 3.1628,-2.0354689 4.61894,-5.0886722 1.95719,-0.6262981 3.4603,-0.7359003 -1.65969,4.7128934 -5.51142,7.5625498 -3.83608,2.86531385 -8.97172,3.19412036 z M 274.62948,-13.667658 v 2.896629 q -3.55424,0.172232 -6.41955,2.0667833 -2.84966,1.8945518 -4.58764,5.2295893 -2.12941,0.6889279 -3.47595,0.6889279 1.67534,-4.7755231 5.52708,-7.6721515 3.85173,-2.896629 8.95606,-3.209778 z" />
      </g>
    </g>
  </g>
</svg>
